Lab2/sramDemo.vcd
$date
	Tue Apr 12 13:56:27 2016
$end
$version
	Icarus Verilog
$end
$timescale
	1s
$end
$scope module sramGTK $end
$scope module mySramDemo $end
$var wire 1 ! CLOCK_50 $end
$var wire 4 " KEY [3:0] $end
$var wire 10 # LEDR [9:0] $end
$var wire 10 $ SW [9:0] $end
$var wire 16 % data [15:0] $end
$var wire 1 & enterRead $end
$var wire 1 ' enterWrite $end
$var wire 1 ( rst $end
$var wire 32 ) clk [31:0] $end
$var reg 11 * adrx [10:0] $end
$var reg 10 + ledDriver [9:0] $end
$var reg 16 , mem [15:0] $end
$var reg 1 - nOE $end
$var reg 1 . read $end
$var reg 3 / state [2:0] $end
$upscope $end
$upscope $end
$enddefinitions $end
#0
$dumpvars
bx /
x.
x-
bx ,
bx +
bx *
b0 )
x(
x'
x&
bx %
bx $
bx #
bx "
0!
$end
#15
b0 /
b1 )
1!
#30
0!
#45
b10 #
b10 +
b10 )
1!
#60
0!
#75
b11 )
1!
#90
0!
#105
b100 )
1!
#120
0!
#135
b101 )
1!
#150
1(
0!
b1xxxxxxxxx $
#165
b1111111 %
b1111111 ,
b0 *
1.
1-
b1 #
b1 +
b110 )
1!
#180
0!
#195
b111 )
1!
#210
0!
#225
b1000 )
1!
#240
0!
#255
b1001 )
1!
#270
0!
#285
b1010 )
1!
#300
0(
0!
b0xxxxxxxxx $
#315
b10 #
b10 +
b1011 )
1!
#330
0!
#345
b1100 )
1!
#360
0!
#375
b1101 )
1!
#390
0!
#405
b1110 )
1!
#420
0!
#435
b1111 )
1!
#450
1'
0!
bx0x "
#465
b11 /
0.
b11 #
b11 +
b10000 )
1!
#480
0!
#495
b1 /
1.
b10001 )
1!
#510
0!
#525
b1111110 %
b11 /
0.
b1 *
b1111110 ,
b10010 )
1!
#540
0!
#555
b1 /
1.
b10011 )
1!
#570
0!
#585
b1111101 %
b11 /
0.
b10 *
b1111101 ,
b10100 )
1!
#600
0'
0!
bx1x "
#615
b1 /
1.
b10101 )
1!
#630
0!
#645
b1111100 %
b11 /
0.
b11 *
b1111100 ,
b10110 )
1!
#660
0!
#675
b1 /
1.
b10111 )
1!
#690
0!
#705
b1111011 %
b11 /
0.
b100 *
b1111011 ,
b11000 )
1!
#720
0!
#735
b1 /
1.
b11001 )
1!
#750
0!
#765
b1111010 %
b11 /
0.
b101 *
b1111010 ,
b11010 )
1!
#780
0!
#795
b1 /
1.
b11011 )
1!
#810
0!
#825
b1111001 %
b11 /
0.
b110 *
b1111001 ,
b11100 )
1!
#840
0!
#855
b1 /
1.
b11101 )
1!
#870
0!
#885
b1111000 %
b11 /
0.
b111 *
b1111000 ,
b11110 )
1!
#900
0!
#915
b1 /
1.
b11111 )
1!
#930
0!
#945
b1110111 %
b11 /
0.
b1000 *
b1110111 ,
b100000 )
1!
#960
0!
#975
b1 /
1.
b100001 )
1!
#990
0!
#1005
b1110110 %
b11 /
0.
b1001 *
b1110110 ,
b100010 )
1!
#1020
0!
#1035
b1 /
1.
b100011 )
1!
#1050
0!
#1065
b1110101 %
b11 /
0.
b1010 *
b1110101 ,
b100100 )
1!
#1080
0!
#1095
b1 /
1.
b100101 )
1!
#1110
0!
#1125
b1110100 %
b11 /
0.
b1011 *
b1110100 ,
b100110 )
1!
#1140
0!
#1155
b1 /
1.
b100111 )
1!
#1170
0!
#1185
b1110011 %
b11 /
0.
b1100 *
b1110011 ,
b101000 )
1!
#1200
0!
#1215
b1 /
1.
b101001 )
1!
#1230
0!
#1245
b1110010 %
b11 /
0.
b1101 *
b1110010 ,
b101010 )
1!
#1260
0!
#1275
b1 /
1.
b101011 )
1!
#1290
0!
#1305
b1110001 %
b11 /
0.
b1110 *
b1110001 ,
b101100 )
1!
#1320
0!
#1335
b1 /
1.
b101101 )
1!
#1350
0!
#1365
b1110000 %
b11 /
0.
b1111 *
b1110000 ,
b101110 )
1!
#1380
0!
#1395
b1 /
1.
b101111 )
1!
#1410
0!
#1425
b1101111 %
b11 /
0.
b10000 *
b1101111 ,
b110000 )
1!
#1440
0!
#1455
b1 /
1.
b110001 )
1!
#1470
0!
#1485
b1101110 %
b11 /
0.
b10001 *
b1101110 ,
b110010 )
1!
#1500
0!
#1515
b1 /
1.
b110011 )
1!
#1530
0!
#1545
b1101101 %
b11 /
0.
b10010 *
b1101101 ,
b110100 )
1!
#1560
0!
#1575
b1 /
1.
b110101 )
1!
#1590
0!
#1605
b1101100 %
b11 /
0.
b10011 *
b1101100 ,
b110110 )
1!
#1620
0!
#1635
b1 /
1.
b110111 )
1!
#1650
0!
#1665
b1101011 %
b11 /
0.
b10100 *
b1101011 ,
b111000 )
1!
#1680
0!
#1695
b1 /
1.
b111001 )
1!
#1710
0!
#1725
b1101010 %
b11 /
0.
b10101 *
b1101010 ,
b111010 )
1!
#1740
0!
#1755
b1 /
1.
b111011 )
1!
#1770
0!
#1785
b1101001 %
b11 /
0.
b10110 *
b1101001 ,
b111100 )
1!
#1800
0!
#1815
b1 /
1.
b111101 )
1!
#1830
0!
#1845
b1101000 %
b11 /
0.
b10111 *
b1101000 ,
b111110 )
1!
#1860
0!
#1875
b1 /
1.
b111111 )
1!
#1890
0!
#1905
b1100111 %
b11 /
0.
b11000 *
b1100111 ,
b1000000 )
1!
#1920
0!
#1935
b1 /
1.
b1000001 )
1!
#1950
0!
#1965
b1100110 %
b11 /
0.
b11001 *
b1100110 ,
b1000010 )
1!
#1980
0!
#1995
b1 /
1.
b1000011 )
1!
#2010
0!
#2025
b1100101 %
b11 /
0.
b11010 *
b1100101 ,
b1000100 )
1!
#2040
0!
#2055
b1 /
1.
b1000101 )
1!
#2070
0!
#2085
b1100100 %
b11 /
0.
b11011 *
b1100100 ,
b1000110 )
1!
#2100
0!
#2115
b1 /
1.
b1000111 )
1!
#2130
0!
#2145
b1100011 %
b11 /
0.
b11100 *
b1100011 ,
b1001000 )
1!
#2160
0!
#2175
b1 /
1.
b1001001 )
1!
#2190
0!
#2205
b1100010 %
b11 /
0.
b11101 *
b1100010 ,
b1001010 )
1!
#2220
0!
#2235
b1 /
1.
b1001011 )
1!
#2250
0!
#2265
b1100001 %
b11 /
0.
b11110 *
b1100001 ,
b1001100 )
1!
#2280
0!
#2295
b1 /
1.
b1001101 )
1!
#2310
0!
#2325
b1100000 %
b11 /
0.
b11111 *
b1100000 ,
b1001110 )
1!
#2340
0!
#2355
b1 /
1.
b1001111 )
1!
#2370
0!
#2385
b1011111 %
b11 /
0.
b100000 *
b1011111 ,
b1010000 )
1!
#2400
0!
#2415
b1 /
1.
b1010001 )
1!
#2430
0!
#2445
b1011110 %
b11 /
0.
b100001 *
b1011110 ,
b1010010 )
1!
#2460
0!
#2475
b1 /
1.
b1010011 )
1!
#2490
0!
#2505
b1011101 %
b11 /
0.
b100010 *
b1011101 ,
b1010100 )
1!
#2520
0!
#2535
b1 /
1.
b1010101 )
1!
#2550
0!
#2565
b1011100 %
b11 /
0.
b100011 *
b1011100 ,
b1010110 )
1!
#2580
0!
#2595
b1 /
1.
b1010111 )
1!
#2610
0!
#2625
b1011011 %
b11 /
0.
b100100 *
b1011011 ,
b1011000 )
1!
#2640
0!
#2655
b1 /
1.
b1011001 )
1!
#2670
0!
#2685
b1011010 %
b11 /
0.
b100101 *
b1011010 ,
b1011010 )
1!
#2700
0!
#2715
b1 /
1.
b1011011 )
1!
#2730
0!
#2745
b1011001 %
b11 /
0.
b100110 *
b1011001 ,
b1011100 )
1!
#2760
0!
#2775
b1 /
1.
b1011101 )
1!
#2790
0!
#2805
b1011000 %
b11 /
0.
b100111 *
b1011000 ,
b1011110 )
1!
#2820
0!
#2835
b1 /
1.
b1011111 )
1!
#2850
0!
#2865
b1010111 %
b11 /
0.
b101000 *
b1010111 ,
b1100000 )
1!
#2880
0!
#2895
b1 /
1.
b1100001 )
1!
#2910
0!
#2925
b1010110 %
b11 /
0.
b101001 *
b1010110 ,
b1100010 )
1!
#2940
0!
#2955
b1 /
1.
b1100011 )
1!
#2970
0!
#2985
b1010101 %
b11 /
0.
b101010 *
b1010101 ,
b1100100 )
1!
#3000
0!
#3015
b1 /
1.
b1100101 )
1!
#3030
0!
#3045
b1010100 %
b11 /
0.
b101011 *
b1010100 ,
b1100110 )
1!
#3060
0!
#3075
b1 /
1.
b1100111 )
1!
#3090
0!
#3105
b1010011 %
b11 /
0.
b101100 *
b1010011 ,
b1101000 )
1!
#3120
0!
#3135
b1 /
1.
b1101001 )
1!
#3150
0!
#3165
b1010010 %
b11 /
0.
b101101 *
b1010010 ,
b1101010 )
1!
#3180
0!
#3195
b1 /
1.
b1101011 )
1!
#3210
0!
#3225
b1010001 %
b11 /
0.
b101110 *
b1010001 ,
b1101100 )
1!
#3240
0!
#3255
b1 /
1.
b1101101 )
1!
#3270
0!
#3285
b1010000 %
b11 /
0.
b101111 *
b1010000 ,
b1101110 )
1!
#3300
0!
#3315
b1 /
1.
b1101111 )
1!
#3330
0!
#3345
b1001111 %
b11 /
0.
b110000 *
b1001111 ,
b1110000 )
1!
#3360
0!
#3375
b1 /
1.
b1110001 )
1!
#3390
0!
#3405
b1001110 %
b11 /
0.
b110001 *
b1001110 ,
b1110010 )
1!
#3420
0!
#3435
b1 /
1.
b1110011 )
1!
#3450
0!
#3465
b1001101 %
b11 /
0.
b110010 *
b1001101 ,
b1110100 )
1!
#3480
0!
#3495
b1 /
1.
b1110101 )
1!
#3510
0!
#3525
b1001100 %
b11 /
0.
b110011 *
b1001100 ,
b1110110 )
1!
#3540
0!
#3555
b1 /
1.
b1110111 )
1!
#3570
0!
#3585
b1001011 %
b11 /
0.
b110100 *
b1001011 ,
b1111000 )
1!
#3600
0!
#3615
b1 /
1.
b1111001 )
1!
#3630
0!
#3645
b1001010 %
b11 /
0.
b110101 *
b1001010 ,
b1111010 )
1!
#3660
0!
#3675
b1 /
1.
b1111011 )
1!
#3690
0!
#3705
b1001001 %
b11 /
0.
b110110 *
b1001001 ,
b1111100 )
1!
#3720
0!
#3735
b1 /
1.
b1111101 )
1!
#3750
0!
#3765
b1001000 %
b11 /
0.
b110111 *
b1001000 ,
b1111110 )
1!
#3780
0!
#3795
b1 /
1.
b1111111 )
1!
#3810
0!
#3825
b1000111 %
b11 /
0.
b111000 *
b1000111 ,
b10000000 )
1!
#3840
0!
#3855
b1 /
1.
b10000001 )
1!
#3870
0!
#3885
b1000110 %
b11 /
0.
b111001 *
b1000110 ,
b10000010 )
1!
#3900
0!
#3915
b1 /
1.
b10000011 )
1!
#3930
0!
#3945
b1000101 %
b11 /
0.
b111010 *
b1000101 ,
b10000100 )
1!
#3960
0!
#3975
b1 /
1.
b10000101 )
1!
#3990
0!
#4005
b1000100 %
b11 /
0.
b111011 *
b1000100 ,
b10000110 )
1!
#4020
0!
#4035
b1 /
1.
b10000111 )
1!
#4050
0!
#4065
b1000011 %
b11 /
0.
b111100 *
b1000011 ,
b10001000 )
1!
#4080
0!
#4095
b1 /
1.
b10001001 )
1!
#4110
0!
#4125
b1000010 %
b11 /
0.
b111101 *
b1000010 ,
b10001010 )
1!
#4140
0!
#4155
b1 /
1.
b10001011 )
1!
#4170
0!
#4185
b1000001 %
b11 /
0.
b111110 *
b1000001 ,
b10001100 )
1!
#4200
0!
#4215
b1 /
1.
b10001101 )
1!
#4230
0!
#4245
b1000000 %
b11 /
0.
b111111 *
b1000000 ,
b10001110 )
1!
#4260
0!
#4275
b1 /
1.
b10001111 )
1!
#4290
0!
#4305
b111111 %
b11 /
0.
b1000000 *
b111111 ,
b10010000 )
1!
#4320
0!
#4335
b1 /
1.
b10010001 )
1!
#4350
0!
#4365
b111110 %
b11 /
0.
b1000001 *
b111110 ,
b10010010 )
1!
#4380
0!
#4395
b1 /
1.
b10010011 )
1!
#4410
0!
#4425
b111101 %
b11 /
0.
b1000010 *
b111101 ,
b10010100 )
1!
#4440
0!
#4455
b1 /
1.
b10010101 )
1!
#4470
0!
#4485
b111100 %
b11 /
0.
b1000011 *
b111100 ,
b10010110 )
1!
#4500
0!
#4515
b1 /
1.
b10010111 )
1!
#4530
0!
#4545
b111011 %
b11 /
0.
b1000100 *
b111011 ,
b10011000 )
1!
#4560
0!
#4575
b1 /
1.
b10011001 )
1!
#4590
0!
#4605
b111010 %
b11 /
0.
b1000101 *
b111010 ,
b10011010 )
1!
#4620
0!
#4635
b1 /
1.
b10011011 )
1!
#4650
0!
#4665
b111001 %
b11 /
0.
b1000110 *
b111001 ,
b10011100 )
1!
#4680
0!
#4695
b1 /
1.
b10011101 )
1!
#4710
0!
#4725
b111000 %
b11 /
0.
b1000111 *
b111000 ,
b10011110 )
1!
#4740
0!
#4755
b1 /
1.
b10011111 )
1!
#4770
0!
#4785
b110111 %
b11 /
0.
b1001000 *
b110111 ,
b10100000 )
1!
#4800
0!
#4815
b1 /
1.
b10100001 )
1!
#4830
0!
#4845
b110110 %
b11 /
0.
b1001001 *
b110110 ,
b10100010 )
1!
#4860
0!
#4875
b1 /
1.
b10100011 )
1!
#4890
0!
#4905
b110101 %
b11 /
0.
b1001010 *
b110101 ,
b10100100 )
1!
#4920
0!
#4935
b1 /
1.
b10100101 )
1!
#4950
0!
#4965
b110100 %
b11 /
0.
b1001011 *
b110100 ,
b10100110 )
1!
#4980
0!
#4995
b1 /
1.
b10100111 )
1!
#5010
0!
#5025
b110011 %
b11 /
0.
b1001100 *
b110011 ,
b10101000 )
1!
#5040
0!
#5055
b1 /
1.
b10101001 )
1!
#5070
0!
#5085
b110010 %
b11 /
0.
b1001101 *
b110010 ,
b10101010 )
1!
#5100
0!
#5115
b1 /
1.
b10101011 )
1!
#5130
0!
#5145
b110001 %
b11 /
0.
b1001110 *
b110001 ,
b10101100 )
1!
#5160
0!
#5175
b1 /
1.
b10101101 )
1!
#5190
0!
#5205
b110000 %
b11 /
0.
b1001111 *
b110000 ,
b10101110 )
1!
#5220
0!
#5235
b1 /
1.
b10101111 )
1!
#5250
0!
#5265
b101111 %
b11 /
0.
b1010000 *
b101111 ,
b10110000 )
1!
#5280
0!
#5295
b1 /
1.
b10110001 )
1!
#5310
0!
#5325
b101110 %
b11 /
0.
b1010001 *
b101110 ,
b10110010 )
1!
#5340
0!
#5355
b1 /
1.
b10110011 )
1!
#5370
0!
#5385
b101101 %
b11 /
0.
b1010010 *
b101101 ,
b10110100 )
1!
#5400
0!
#5415
b1 /
1.
b10110101 )
1!
#5430
0!
#5445
b101100 %
b11 /
0.
b1010011 *
b101100 ,
b10110110 )
1!
#5460
0!
#5475
b1 /
1.
b10110111 )
1!
#5490
0!
#5505
b101011 %
b11 /
0.
b1010100 *
b101011 ,
b10111000 )
1!
#5520
0!
#5535
b1 /
1.
b10111001 )
1!
#5550
0!
#5565
b101010 %
b11 /
0.
b1010101 *
b101010 ,
b10111010 )
1!
#5580
0!
#5595
b1 /
1.
b10111011 )
1!
#5610
0!
#5625
b101001 %
b11 /
0.
b1010110 *
b101001 ,
b10111100 )
1!
#5640
0!
#5655
b1 /
1.
b10111101 )
1!
#5670
0!
#5685
b101000 %
b11 /
0.
b1010111 *
b101000 ,
b10111110 )
1!
#5700
0!
#5715
b1 /
1.
b10111111 )
1!
#5730
0!
#5745
b100111 %
b11 /
0.
b1011000 *
b100111 ,
b11000000 )
1!
#5760
0!
#5775
b1 /
1.
b11000001 )
1!
#5790
0!
#5805
b100110 %
b11 /
0.
b1011001 *
b100110 ,
b11000010 )
1!
#5820
0!
#5835
b1 /
1.
b11000011 )
1!
#5850
0!
#5865
b100101 %
b11 /
0.
b1011010 *
b100101 ,
b11000100 )
1!
#5880
0!
#5895
b1 /
1.
b11000101 )
1!
#5910
0!
#5925
b100100 %
b11 /
0.
b1011011 *
b100100 ,
b11000110 )
1!
#5940
0!
#5955
b1 /
1.
b11000111 )
1!
#5970
0!
#5985
b100011 %
b11 /
0.
b1011100 *
b100011 ,
b11001000 )
1!
#6000
0!
#6015
b1 /
1.
b11001001 )
1!
#6030
0!
#6045
b100010 %
b11 /
0.
b1011101 *
b100010 ,
b11001010 )
1!
#6060
0!
#6075
b1 /
1.
b11001011 )
1!
#6090
0!
#6105
b100001 %
b11 /
0.
b1011110 *
b100001 ,
b11001100 )
1!
#6120
0!
#6135
b1 /
1.
b11001101 )
1!
#6150
0!
#6165
b100000 %
b11 /
0.
b1011111 *
b100000 ,
b11001110 )
1!
#6180
0!
#6195
b1 /
1.
b11001111 )
1!
#6210
0!
#6225
b11111 %
b11 /
0.
b1100000 *
b11111 ,
b11010000 )
1!
#6240
0!
#6255
b1 /
1.
b11010001 )
1!
#6270
0!
#6285
b11110 %
b11 /
0.
b1100001 *
b11110 ,
b11010010 )
1!
#6300
0!
#6315
b1 /
1.
b11010011 )
1!
#6330
0!
#6345
b11101 %
b11 /
0.
b1100010 *
b11101 ,
b11010100 )
1!
#6360
0!
#6375
b1 /
1.
b11010101 )
1!
#6390
0!
#6405
b11100 %
b11 /
0.
b1100011 *
b11100 ,
b11010110 )
1!
#6420
0!
#6435
b1 /
1.
b11010111 )
1!
#6450
0!
#6465
b11011 %
b11 /
0.
b1100100 *
b11011 ,
b11011000 )
1!
#6480
0!
#6495
b1 /
1.
b11011001 )
1!
#6510
0!
#6525
b11010 %
b11 /
0.
b1100101 *
b11010 ,
b11011010 )
1!
#6540
0!
#6555
b1 /
1.
b11011011 )
1!
#6570
0!
#6585
b11001 %
b11 /
0.
b1100110 *
b11001 ,
b11011100 )
1!
#6600
0!
#6615
b1 /
1.
b11011101 )
1!
#6630
0!
#6645
b11000 %
b11 /
0.
b1100111 *
b11000 ,
b11011110 )
1!
#6660
0!
#6675
b1 /
1.
b11011111 )
1!
#6690
0!
#6705
b10111 %
b11 /
0.
b1101000 *
b10111 ,
b11100000 )
1!
#6720
0!
#6735
b1 /
1.
b11100001 )
1!
#6750
0!
#6765
b10110 %
b11 /
0.
b1101001 *
b10110 ,
b11100010 )
1!
#6780
0!
#6795
b1 /
1.
b11100011 )
1!
#6810
0!
#6825
b10101 %
b11 /
0.
b1101010 *
b10101 ,
b11100100 )
1!
#6840
0!
#6855
b1 /
1.
b11100101 )
1!
#6870
0!
#6885
b10100 %
b11 /
0.
b1101011 *
b10100 ,
b11100110 )
1!
#6900
0!
#6915
b1 /
1.
b11100111 )
1!
#6930
0!
#6945
b10011 %
b11 /
0.
b1101100 *
b10011 ,
b11101000 )
1!
#6960
0!
#6975
b1 /
1.
b11101001 )
1!
#6990
0!
#7005
b10010 %
b11 /
0.
b1101101 *
b10010 ,
b11101010 )
1!
#7020
0!
#7035
b1 /
1.
b11101011 )
1!
#7050
0!
#7065
b10001 %
b11 /
0.
b1101110 *
b10001 ,
b11101100 )
1!
#7080
0!
#7095
b1 /
1.
b11101101 )
1!
#7110
0!
#7125
b10000 %
b11 /
0.
b1101111 *
b10000 ,
b11101110 )
1!
#7140
0!
#7155
b1 /
1.
b11101111 )
1!
#7170
0!
#7185
b1111 %
b11 /
0.
b1110000 *
b1111 ,
b11110000 )
1!
#7200
0!
#7215
b1 /
1.
b11110001 )
1!
#7230
0!
#7245
b1110 %
b11 /
0.
b1110001 *
b1110 ,
b11110010 )
1!
#7260
0!
#7275
b1 /
1.
b11110011 )
1!
#7290
0!
#7305
b1101 %
b11 /
0.
b1110010 *
b1101 ,
b11110100 )
1!
#7320
0!
#7335
b1 /
1.
b11110101 )
1!
#7350
0!
#7365
b1100 %
b11 /
0.
b1110011 *
b1100 ,
b11110110 )
1!
#7380
0!
#7395
b1 /
1.
b11110111 )
1!
#7410
0!
#7425
b1011 %
b11 /
0.
b1110100 *
b1011 ,
b11111000 )
1!
#7440
0!
#7455
b1 /
1.
b11111001 )
1!
#7470
0!
#7485
b1010 %
b11 /
0.
b1110101 *
b1010 ,
b11111010 )
1!
#7500
0!
#7515
b1 /
1.
b11111011 )
1!
#7530
0!
#7545
b1001 %
b11 /
0.
b1110110 *
b1001 ,
b11111100 )
1!
#7560
0!
#7575
b1 /
1.
b11111101 )
1!
#7590
0!
#7605
b1000 %
b11 /
0.
b1110111 *
b1000 ,
b11111110 )
1!
#7620
0!
#7635
b1 /
1.
b11111111 )
1!
#7650
0!
#7665
b111 %
b11 /
0.
b1111000 *
b111 ,
b100000000 )
1!
#7680
0!
#7695
b1 /
1.
b100000001 )
1!
#7710
0!
#7725
b110 %
b11 /
0.
b1111001 *
b110 ,
b100000010 )
1!
#7740
0!
#7755
b1 /
1.
b100000011 )
1!
#7770
0!
#7785
b101 %
b11 /
0.
b1111010 *
b101 ,
b100000100 )
1!
#7800
0!
#7815
b1 /
1.
b100000101 )
1!
#7830
0!
#7845
b100 %
b11 /
0.
b1111011 *
b100 ,
b100000110 )
1!
#7860
0!
#7875
b1 /
1.
b100000111 )
1!
#7890
0!
#7905
b11 %
b11 /
0.
b1111100 *
b11 ,
b100001000 )
1!
#7920
0!
#7935
b1 /
1.
b100001001 )
1!
#7950
0!
#7965
b10 %
b11 /
0.
b1111101 *
b10 ,
b100001010 )
1!
#7980
0!
#7995
b1 /
1.
b100001011 )
1!
#8010
0!
#8025
b1 %
b11 /
0.
b1111110 *
b1 ,
b100001100 )
1!
#8040
0!
#8055
b1 /
1.
b100001101 )
1!
#8070
0!
#8085
b0 %
b11 /
0.
b1111111 *
b0 ,
b100001110 )
1!
#8100
0!
#8115
b1 /
1.
b100001111 )
1!
#8130
0!
#8145
b0 /
b100010000 )
1!
#8160
0!
#8175
b10 #
b10 +
b100010001 )
1!
#8190
0!
#8205
b100010010 )
1!
#8220
0!
#8235
b100010011 )
1!
#8250
0!
#8265
b100010100 )
1!
#8280
0!
#8295
b100010101 )
1!
#8310
0!
#8325
b100010110 )
1!
#8340
0!
#8355
b100010111 )
1!
#8370
0!
#8385
b100011000 )
1!
#8400
0!
#8415
b100011001 )
1!
#8430
0!
#8445
b100011010 )
1!
#8460
0!
#8475
b100011011 )
1!
#8490
0!
#8505
b100011100 )
1!
#8520
0!
#8535
b100011101 )
1!
#8550
0!
#8565
b100011110 )
1!
#8580
0!
#8595
b100011111 )
1!
#8610
0!
#8625
b100100000 )
1!
#8640
0!
#8655
b100100001 )
1!
#8670
0!
#8685
b100100010 )
1!
#8700
0!
#8715
b100100011 )
1!
#8730
0!
#8745
b100100100 )
1!
#8760
0!
#8775
b100100101 )
1!
#8790
0!
#8805
b100100110 )
1!
#8820
0!
#8835
b100100111 )
1!
#8850
0!
#8865
b100101000 )
1!
#8880
0!
#8895
b100101001 )
1!
#8910
0!
#8925
b100101010 )
1!
#8940
0!
#8955
b100101011 )
1!
#8970
0!
#8985
b100101100 )
1!
#9000
0!
#9015
b100101101 )
1!
#9030
0!
#9045
b100101110 )
1!
#9060
0!
#9075
b100101111 )
1!
#9090
0!
#9105
b100110000 )
1!
#9120
0!
#9135
b100110001 )
1!
#9150
0!
#9165
b100110010 )
1!
#9180
0!
#9195
b100110011 )
1!
#9210
0!
#9225
b100110100 )
1!
#9240
0!
#9255
b100110101 )
1!
#9270
0!
#9285
b100110110 )
1!
#9300
0!
#9315
b100110111 )
1!
#9330
0!
#9345
b100111000 )
1!
#9360
0!
#9375
b100111001 )
1!
#9390
0!
#9405
b100111010 )
1!
#9420
0!
#9435
b100111011 )
1!
#9450
0!
#9465
b100111100 )
1!
#9480
0!
#9495
b100111101 )
1!
#9510
0!
#9525
b100111110 )
1!
#9540
0!
#9555
b100111111 )
1!
#9570
0!
#9585
b101000000 )
1!
#9600
0!
#9615
b101000001 )
1!
#9630
0!
#9645
b101000010 )
1!
#9660
0!
#9675
b101000011 )
1!
#9690
0!
#9705
b101000100 )
1!
#9720
0!
#9735
b101000101 )
1!
#9750
1&
0!
bx10 "
#9765
b0 %
b110 /
0-
b0 *
b0 #
b0 +
b101000110 )
1!
#9780
0!
#9795
b111 /
b101000111 )
1!
#9810
0!
#9825
b1111111 %
b110 /
b1 *
b101001000 )
1!
#9840
0!
#9855
b111 /
b111111100 #
b111111100 +
b101001001 )
1!
#9870
0!
#9885
b1111110 %
b110 /
b10 *
b101001010 )
1!
#9900
0&
0!
bx11 "
#9915
b111 /
b111111000 #
b111111000 +
b101001011 )
1!
#9930
0!
#9945
b1111101 %
b110 /
b11 *
b101001100 )
1!
#9960
0!
#9975
b111 /
b111110100 #
b111110100 +
b101001101 )
1!
#9990
0!
#10005
b1111100 %
b110 /
b100 *
b101001110 )
1!
#10020
0!
#10035
b111 /
b111110000 #
b111110000 +
b101001111 )
1!
#10050
0!
#10065
b1111011 %
b110 /
b101 *
b101010000 )
1!
#10080
0!
#10095
b111 /
b111101100 #
b111101100 +
b101010001 )
1!
#10110
0!
#10125
b1111010 %
b110 /
b110 *
b101010010 )
1!
#10140
0!
#10155
b111 /
b111101000 #
b111101000 +
b101010011 )
1!
#10170
0!
#10185
b1111001 %
b110 /
b111 *
b101010100 )
1!
#10200
0!
#10215
b111 /
b111100100 #
b111100100 +
b101010101 )
1!
#10230
0!
#10245
b1111000 %
b110 /
b1000 *
b101010110 )
1!
#10260
0!
#10275
b111 /
b111100000 #
b111100000 +
b101010111 )
1!
#10290
0!
#10305
b1110111 %
b110 /
b1001 *
b101011000 )
1!
#10320
0!
#10335
b111 /
b111011100 #
b111011100 +
b101011001 )
1!
#10350
0!
#10365
b1110110 %
b110 /
b1010 *
b101011010 )
1!
#10380
0!
#10395
b111 /
b111011000 #
b111011000 +
b101011011 )
1!
#10410
0!
#10425
b1110101 %
b110 /
b1011 *
b101011100 )
1!
#10440
0!
#10455
b111 /
b111010100 #
b111010100 +
b101011101 )
1!
#10470
0!
#10485
b1110100 %
b110 /
b1100 *
b101011110 )
1!
#10500
0!
#10515
b111 /
b111010000 #
b111010000 +
b101011111 )
1!
#10530
0!
#10545
b1110011 %
b110 /
b1101 *
b101100000 )
1!
#10560
0!
#10575
b111 /
b111001100 #
b111001100 +
b101100001 )
1!
#10590
0!
#10605
b1110010 %
b110 /
b1110 *
b101100010 )
1!
#10620
0!
#10635
b111 /
b111001000 #
b111001000 +
b101100011 )
1!
#10650
0!
#10665
b1110001 %
b110 /
b1111 *
b101100100 )
1!
#10680
0!
#10695
b111 /
b111000100 #
b111000100 +
b101100101 )
1!
#10710
0!
#10725
b1110000 %
b110 /
b10000 *
b101100110 )
1!
#10740
0!
#10755
b111 /
b111000000 #
b111000000 +
b101100111 )
1!
#10770
0!
#10785
b1101111 %
b110 /
b10001 *
b101101000 )
1!
#10800
0!
#10815
b111 /
b110111100 #
b110111100 +
b101101001 )
1!
#10830
0!
#10845
b1101110 %
b110 /
b10010 *
b101101010 )
1!
#10860
0!
#10875
b111 /
b110111000 #
b110111000 +
b101101011 )
1!
#10890
0!
#10905
b1101101 %
b110 /
b10011 *
b101101100 )
1!
#10920
0!
#10935
b111 /
b110110100 #
b110110100 +
b101101101 )
1!
#10950
0!
#10965
b1101100 %
b110 /
b10100 *
b101101110 )
1!
#10980
0!
#10995
b111 /
b110110000 #
b110110000 +
b101101111 )
1!
#11010
0!
#11025
b1101011 %
b110 /
b10101 *
b101110000 )
1!
#11040
0!
#11055
b111 /
b110101100 #
b110101100 +
b101110001 )
1!
#11070
0!
#11085
b1101010 %
b110 /
b10110 *
b101110010 )
1!
#11100
0!
#11115
b111 /
b110101000 #
b110101000 +
b101110011 )
1!
#11130
0!
#11145
b1101001 %
b110 /
b10111 *
b101110100 )
1!
#11160
0!
#11175
b111 /
b110100100 #
b110100100 +
b101110101 )
1!
#11190
0!
#11205
b1101000 %
b110 /
b11000 *
b101110110 )
1!
#11220
0!
#11235
b111 /
b110100000 #
b110100000 +
b101110111 )
1!
#11250
0!
#11265
b1100111 %
b110 /
b11001 *
b101111000 )
1!
#11280
0!
#11295
b111 /
b110011100 #
b110011100 +
b101111001 )
1!
#11310
0!
#11325
b1100110 %
b110 /
b11010 *
b101111010 )
1!
#11340
0!
#11355
b111 /
b110011000 #
b110011000 +
b101111011 )
1!
#11370
0!
#11385
b1100101 %
b110 /
b11011 *
b101111100 )
1!
#11400
0!
#11415
b111 /
b110010100 #
b110010100 +
b101111101 )
1!
#11430
0!
#11445
b1100100 %
b110 /
b11100 *
b101111110 )
1!
#11460
0!
#11475
b111 /
b110010000 #
b110010000 +
b101111111 )
1!
#11490
0!
#11505
b1100011 %
b110 /
b11101 *
b110000000 )
1!
#11520
0!
#11535
b111 /
b110001100 #
b110001100 +
b110000001 )
1!
#11550
0!
#11565
b1100010 %
b110 /
b11110 *
b110000010 )
1!
#11580
0!
#11595
b111 /
b110001000 #
b110001000 +
b110000011 )
1!
#11610
0!
#11625
b1100001 %
b110 /
b11111 *
b110000100 )
1!
#11640
0!
#11655
b111 /
b110000100 #
b110000100 +
b110000101 )
1!
#11670
0!
#11685
b1100000 %
b110 /
b100000 *
b110000110 )
1!
#11700
0!
#11715
b111 /
b110000000 #
b110000000 +
b110000111 )
1!
#11730
0!
#11745
b1011111 %
b110 /
b100001 *
b110001000 )
1!
#11760
0!
#11775
b111 /
b101111100 #
b101111100 +
b110001001 )
1!
#11790
0!
#11805
b1011110 %
b110 /
b100010 *
b110001010 )
1!
#11820
0!
#11835
b111 /
b101111000 #
b101111000 +
b110001011 )
1!
#11850
0!
#11865
b1011101 %
b110 /
b100011 *
b110001100 )
1!
#11880
0!
#11895
b111 /
b101110100 #
b101110100 +
b110001101 )
1!
#11910
0!
#11925
b1011100 %
b110 /
b100100 *
b110001110 )
1!
#11940
0!
#11955
b111 /
b101110000 #
b101110000 +
b110001111 )
1!
#11970
0!
#11985
b1011011 %
b110 /
b100101 *
b110010000 )
1!
#12000
0!
#12015
b111 /
b101101100 #
b101101100 +
b110010001 )
1!
#12030
0!
#12045
b1011010 %
b110 /
b100110 *
b110010010 )
1!
#12060
0!
#12075
b111 /
b101101000 #
b101101000 +
b110010011 )
1!
#12090
0!
